%YAML 1.1
%TAG !u! tag:unity3d.com,2011:
--- !u!1001 &5101290480038061207
PrefabInstance:
  m_ObjectHideFlags: 0
  serializedVersion: 2
  m_Modification:
    m_TransformParent: {fileID: 0}
    m_Modifications:
    - target: {fileID: 131568, guid: 2fdf2b8525a6fa54ba867925b16564e3, type: 3}
      propertyPath: m_Name
      value: Animal_Doe_02 Variant
      objectReference: {fileID: 0}
    - target: {fileID: 408434, guid: 2fdf2b8525a6fa54ba867925b16564e3, type: 3}
      propertyPath: m_RootOrder
      value: 0
      objectReference: {fileID: 0}
    - target: {fileID: 408434, guid: 2fdf2b8525a6fa54ba867925b16564e3, type: 3}
      propertyPath: m_LocalPosition.x
      value: 10
      objectReference: {fileID: 0}
    - target: {fileID: 408434, guid: 2fdf2b8525a6fa54ba867925b16564e3, type: 3}
      propertyPath: m_LocalPosition.y
      value: 0
      objectReference: {fileID: 0}
    - target: {fileID: 408434, guid: 2fdf2b8525a6fa54ba867925b16564e3, type: 3}
      propertyPath: m_LocalPosition.z
      value: 12
      objectReference: {fileID: 0}
    - target: {fileID: 408434, guid: 2fdf2b8525a6fa54ba867925b16564e3, type: 3}
      propertyPath: m_LocalRotation.w
      value: 0
      objectReference: {fileID: 0}
    - target: {fileID: 408434, guid: 2fdf2b8525a6fa54ba867925b16564e3, type: 3}
      propertyPath: m_LocalRotation.x
      value: 0
      objectReference: {fileID: 0}
    - target: {fileID: 408434, guid: 2fdf2b8525a6fa54ba867925b16564e3, type: 3}
      propertyPath: m_LocalRotation.y
      value: 1
      objectReference: {fileID: 0}
    - target: {fileID: 408434, guid: 2fdf2b8525a6fa54ba867925b16564e3, type: 3}
      propertyPath: m_LocalRotation.z
      value: 0
      objectReference: {fileID: 0}
    - target: {fileID: 408434, guid: 2fdf2b8525a6fa54ba867925b16564e3, type: 3}
      propertyPath: m_LocalEulerAnglesHint.x
      value: 0
      objectReference: {fileID: 0}
    - target: {fileID: 408434, guid: 2fdf2b8525a6fa54ba867925b16564e3, type: 3}
      propertyPath: m_LocalEulerAnglesHint.y
      value: 180
      objectReference: {fileID: 0}
    - target: {fileID: 408434, guid: 2fdf2b8525a6fa54ba867925b16564e3, type: 3}
      propertyPath: m_LocalEulerAnglesHint.z
      value: 0
      objectReference: {fileID: 0}
    m_RemovedComponents: []
  m_SourcePrefab: {fileID: 100100000, guid: 2fdf2b8525a6fa54ba867925b16564e3, type: 3}
--- !u!1 &5101290480038192487 stripped
GameObject:
  m_CorrespondingSourceObject: {fileID: 131568, guid: 2fdf2b8525a6fa54ba867925b16564e3, type: 3}
  m_PrefabInstance: {fileID: 5101290480038061207}
  m_PrefabAsset: {fileID: 0}
--- !u!65 &1185771999150524561
BoxCollider:
  m_ObjectHideFlags: 0
  m_CorrespondingSourceObject: {fileID: 0}
  m_PrefabInstance: {fileID: 0}
  m_PrefabAsset: {fileID: 0}
  m_GameObject: {fileID: 5101290480038192487}
  m_Material: {fileID: 0}
  m_IsTrigger: 1
  m_Enabled: 1
  serializedVersion: 2
  m_Size: {x: 0.13770323, y: 0.39493808, z: 0.41023657}
  m_Center: {x: 0.000000047683717, y: 0.17997117, z: 0.048161127}
--- !u!114 &-8945353951733384642
MonoBehaviour:
  m_ObjectHideFlags: 0
  m_CorrespondingSourceObject: {fileID: 0}
  m_PrefabInstance: {fileID: 0}
  m_PrefabAsset: {fileID: 0}
  m_GameObject: {fileID: 5101290480038192487}
  m_Enabled: 1
  m_EditorHideFlags: 0
  m_Script: {fileID: 11500000, guid: 89be56b2c32346a4cae59a9303d431ee, type: 3}
  m_Name: 
  m_EditorClassIdentifier: 
--- !u!114 &1662992917
MonoBehaviour:
  m_ObjectHideFlags: 0
  m_CorrespondingSourceObject: {fileID: 0}
  m_PrefabInstance: {fileID: 0}
  m_PrefabAsset: {fileID: 0}
  m_GameObject: {fileID: 5101290480038192487}
  m_Enabled: 1
  m_EditorHideFlags: 0
  m_Script: {fileID: 11500000, guid: 38f12f85641a015429e752e388a50a19, type: 3}
  m_Name: 
  m_EditorClassIdentifier: 
  Velocidad: 10
--- !u!114 &-5744096525802211883
MonoBehaviour:
  m_ObjectHideFlags: 0
  m_CorrespondingSourceObject: {fileID: 0}
  m_PrefabInstance: {fileID: 0}
  m_PrefabAsset: {fileID: 0}
  m_GameObject: {fileID: 5101290480038192487}
  m_Enabled: 1
  m_EditorHideFlags: 0
  m_Script: {fileID: 11500000, guid: 50d321e7ce44cfe42bcd8daf79d5fa9f, type: 3}
  m_Name: 
  m_EditorClassIdentifier: 
